src/wave.vcd
$date
     Mar 02, 2026       18:39:35
$end

$version
 SystemC 2.3.3-Accellera --- Jan 31 2026 15:00:24
$end

$timescale
     1 ns
$end

$scope module SystemC $end
$var wire    1  aaaaa  clk       $end
$var wire    1  aaaab  rst_n       $end
$var wire    1  aaaac  weight_load       $end
$var wire    1  aaaad  weight_switch       $end
$var wire    1  aaaae  col_input_valid       $end
$var wire    1  aaaaf  tile_done       $end
$var wire    1  aaaag  ib_wr_en       $end
$var wire    1  aaaah  ib_wr_ready       $end
$var wire    1  aaaai  ib_rd_en       $end
$var wire   16  aaaaj  IB_WR_DATA_0 [15:0]  $end
$var wire   16  aaaak  IB_RD_DATA_cols_0 [15:0]  $end
$var wire   16  aaaal  IB_WR_DATA_1 [15:0]  $end
$var wire   16  aaaam  IB_RD_DATA_cols_1 [15:0]  $end
$var wire   16  aaaan  IB_WR_DATA_2 [15:0]  $end
$var wire   16  aaaao  IB_RD_DATA_cols_2 [15:0]  $end
$var wire    1  aaaap  ob_wr_en       $end
$var wire    1  aaaaq  ob_wr_ready       $end
$var wire    1  aaaar  ob_rd_valid       $end
$var wire   64  aaaas  OB_WR_DATA_rows_0 [63:0]  $end
$var wire   64  aaaat  OB_RD_DATA_0 [63:0]  $end
$var wire   64  aaaau  OB_WR_DATA_rows_1 [63:0]  $end
$var wire   64  aaaav  OB_RD_DATA_1 [63:0]  $end
$var wire   64  aaaaw  OB_WR_DATA_rows_2 [63:0]  $end
$var wire   64  aaaax  OB_RD_DATA_2 [63:0]  $end
$var wire    1  aaaay  wb_wr_en_0       $end
$var wire    1  aaaaz  wb_rd_en_0       $end
$var wire    1  aaaba  wb_rd_valid_0       $end
$var wire    1  aaabb  wb_wr_en_1       $end
$var wire    1  aaabc  wb_rd_en_1       $end
$var wire    1  aaabd  wb_rd_valid_1       $end
$var wire    1  aaabe  wb_wr_en_2       $end
$var wire    1  aaabf  wb_rd_en_2       $end
$var wire    1  aaabg  wb_rd_valid_2       $end
$var wire   16  aaabh  WB_WR_DATA_0 [15:0]  $end
$var wire   16  aaabi  WB_RD_DATA_pes_0 [15:0]  $end
$var wire   16  aaabj  WB_WR_DATA_1 [15:0]  $end
$var wire   16  aaabk  WB_RD_DATA_pes_1 [15:0]  $end
$var wire   16  aaabl  WB_WR_DATA_2 [15:0]  $end
$var wire   16  aaabm  WB_RD_DATA_pes_2 [15:0]  $end
$var wire   16  aaabn  WB_WR_DATA_3 [15:0]  $end
$var wire   16  aaabo  WB_RD_DATA_pes_3 [15:0]  $end
$var wire   16  aaabp  WB_WR_DATA_4 [15:0]  $end
$var wire   16  aaabq  WB_RD_DATA_pes_4 [15:0]  $end
$var wire   16  aaabr  WB_WR_DATA_5 [15:0]  $end
$var wire   16  aaabs  WB_RD_DATA_pes_5 [15:0]  $end
$var wire   16  aaabt  WB_WR_DATA_6 [15:0]  $end
$var wire   16  aaabu  WB_RD_DATA_pes_6 [15:0]  $end
$var wire   16  aaabv  WB_WR_DATA_7 [15:0]  $end
$var wire   16  aaabw  WB_RD_DATA_pes_7 [15:0]  $end
$var wire   16  aaabx  WB_WR_DATA_8 [15:0]  $end
$var wire   16  aaaby  WB_RD_DATA_pes_8 [15:0]  $end
$upscope $end
$enddefinitions  $end

$comment
All initial values are dumped below at time 0 sec = 0 timescale units.
$end

$dumpvars
1aaaaa
0aaaab
0aaaac
0aaaad
0aaaae
0aaaaf
0aaaag
0aaaah
0aaaai
b0 aaaaj
b0 aaaak
b0 aaaal
b0 aaaam
b0 aaaan
b0 aaaao
0aaaap
0aaaaq
0aaaar
b0 aaaas
b0 aaaat
b0 aaaau
b0 aaaav
b0 aaaaw
b0 aaaax
0aaaay
0aaaaz
0aaaba
0aaabb
0aaabc
0aaabd
0aaabe
0aaabf
0aaabg
b0 aaabh
b0 aaabi
b0 aaabj
b0 aaabk
b0 aaabl
b0 aaabm
b0 aaabn
b0 aaabo
b0 aaabp
b0 aaabq
b0 aaabr
b0 aaabs
b0 aaabt
b0 aaabu
b0 aaabv
b0 aaabw
b0 aaabx
b0 aaaby
$end

#5
0aaaaa

#10
1aaaaa

#15
0aaaaa
1aaaab

#20
1aaaaa
1aaaah
1aaaaq

#25
0aaaaa
1aaaay
1aaabb
1aaabe
b1 aaabh
b10 aaabj
b11 aaabl
b10 aaabn
b11 aaabp
b100 aaabr
b11 aaabt
b100 aaabv
b101 aaabx

#30
1aaaaa

#35
0aaaaa
b10 aaabh
b11 aaabj
b100 aaabl
b11 aaabn
b100 aaabp
b101 aaabr
b100 aaabt
b101 aaabv
b110 aaabx

#40
1aaaaa
1aaaaf

#45
0aaaaa
b11 aaabh
b100 aaabj
b101 aaabl
b100 aaabn
b101 aaabp
b110 aaabr
b101 aaabt
b110 aaabv
b111 aaabx

#50
1aaaaa
0aaaaf

#55
0aaaaa
b1 aaabh
b10 aaabj
b11 aaabl
b10 aaabn
b11 aaabp
b100 aaabr
b11 aaabt
b100 aaabv
b101 aaabx

#60
1aaaaa

#65
0aaaaa
b10 aaabh
b11 aaabj
b100 aaabl
b11 aaabn
b100 aaabp
b101 aaabr
b100 aaabt
b101 aaabv
b110 aaabx

#70
1aaaaa

#75
0aaaaa
b11 aaabh
b100 aaabj
b101 aaabl
b100 aaabn
b101 aaabp
b110 aaabr
b101 aaabt
b110 aaabv
b111 aaabx

#80
1aaaaa

#85
0aaaaa
b1 aaabh
b10 aaabj
b11 aaabl
b10 aaabn
b11 aaabp
b100 aaabr
b11 aaabt
b100 aaabv
b101 aaabx

#90
1aaaaa

#95
0aaaaa
b10 aaabh
b11 aaabj
b100 aaabl
b11 aaabn
b100 aaabp
b101 aaabr
b100 aaabt
b101 aaabv
b110 aaabx

#100
1aaaaa

#105
0aaaaa
b11 aaabh
b100 aaabj
b101 aaabl
b100 aaabn
b101 aaabp
b110 aaabr
b101 aaabt
b110 aaabv
b111 aaabx

#110
1aaaaa

#115
0aaaaa
b1 aaabh
b10 aaabj
b11 aaabl
b10 aaabn
b11 aaabp
b100 aaabr
b11 aaabt
b100 aaabv
b101 aaabx

#120
1aaaaa

#125
0aaaaa
b10 aaabh
b11 aaabj
b100 aaabl
b11 aaabn
b100 aaabp
b101 aaabr
b100 aaabt
b101 aaabv
b110 aaabx

#130
1aaaaa

#135
0aaaaa
b11 aaabh
b100 aaabj
b101 aaabl
b100 aaabn
b101 aaabp
b110 aaabr
b101 aaabt
b110 aaabv
b111 aaabx

#140
1aaaaa

#145
0aaaaa
b1 aaabh
b10 aaabj
b11 aaabl
b10 aaabn
b11 aaabp
b100 aaabr
b11 aaabt
b100 aaabv
b101 aaabx

#150
1aaaaa

#155
0aaaaa
b10 aaabh
b11 aaabj
b100 aaabl
b11 aaabn
b100 aaabp
b101 aaabr
b100 aaabt
b101 aaabv
b110 aaabx

#160
1aaaaa

#165
0aaaaa
b11 aaabh
b100 aaabj
b101 aaabl
b100 aaabn
b101 aaabp
b110 aaabr
b101 aaabt
b110 aaabv
b111 aaabx

#170
1aaaaa

#175
0aaaaa
b1 aaabh
b10 aaabj
b11 aaabl
b10 aaabn
b11 aaabp
b100 aaabr
b11 aaabt
b100 aaabv
b101 aaabx

#180
1aaaaa

#185
0aaaaa
b10 aaabh
b11 aaabj
b100 aaabl
b11 aaabn
b100 aaabp
b101 aaabr
b100 aaabt
b101 aaabv
b110 aaabx

#190
1aaaaa

#195
0aaaaa
b11 aaabh
b100 aaabj
b101 aaabl
b100 aaabn
b101 aaabp
b110 aaabr
b101 aaabt
b110 aaabv
b111 aaabx

#200
1aaaaa

#205
0aaaaa
b1 aaabh
b10 aaabj
b11 aaabl
b10 aaabn
b11 aaabp
b100 aaabr
b11 aaabt
b100 aaabv
b101 aaabx

#210
1aaaaa

#215
0aaaaa
b10 aaabh
b11 aaabj
b100 aaabl
b11 aaabn
b100 aaabp
b101 aaabr
b100 aaabt
b101 aaabv
b110 aaabx

#220
1aaaaa

#225
0aaaaa
b11 aaabh
b100 aaabj
b101 aaabl
b100 aaabn
b101 aaabp
b110 aaabr
b101 aaabt
b110 aaabv
b111 aaabx

#230
1aaaaa

#235
0aaaaa
b1 aaabh
b10 aaabj
b11 aaabl
b10 aaabn
b11 aaabp
b100 aaabr
b11 aaabt
b100 aaabv
b101 aaabx

#240
1aaaaa

#245
0aaaaa
b10 aaabh
b11 aaabj
b100 aaabl
b11 aaabn
b100 aaabp
b101 aaabr
b100 aaabt
b101 aaabv
b110 aaabx

#250
1aaaaa

#255
0aaaaa
b11 aaabh
b100 aaabj
b101 aaabl
b100 aaabn
b101 aaabp
b110 aaabr
b101 aaabt
b110 aaabv
b111 aaabx

#260
1aaaaa

#265
0aaaaa
b1 aaabh
b10 aaabj
b11 aaabl
b10 aaabn
b11 aaabp
b100 aaabr
b11 aaabt
b100 aaabv
b101 aaabx

#270
1aaaaa

#275
0aaaaa
b10 aaabh
b11 aaabj
b100 aaabl
b11 aaabn
b100 aaabp
b101 aaabr
b100 aaabt
b101 aaabv
b110 aaabx

#280
1aaaaa

#285
0aaaaa
b11 aaabh
b100 aaabj
b101 aaabl
b100 aaabn
b101 aaabp
b110 aaabr
b101 aaabt
b110 aaabv
b111 aaabx

#290
1aaaaa

#295
0aaaaa
b1 aaabh
b10 aaabj
b11 aaabl
b10 aaabn
b11 aaabp
b100 aaabr
b11 aaabt
b100 aaabv
b101 aaabx

#300
1aaaaa

#305
0aaaaa
b10 aaabh
b11 aaabj
b100 aaabl
b11 aaabn
b100 aaabp
b101 aaabr
b100 aaabt
b101 aaabv
b110 aaabx

#310
1aaaaa

#315
0aaaaa
b11 aaabh
b100 aaabj
b101 aaabl
b100 aaabn
b101 aaabp
b110 aaabr
b101 aaabt
b110 aaabv
b111 aaabx

#320
1aaaaa

#325
0aaaaa
b1 aaabh
b10 aaabj
b11 aaabl
b10 aaabn
b11 aaabp
b100 aaabr
b11 aaabt
b100 aaabv
b101 aaabx

#330
1aaaaa

#335
0aaaaa
b10 aaabh
b11 aaabj
b100 aaabl
b11 aaabn
b100 aaabp
b101 aaabr
b100 aaabt
b101 aaabv
b110 aaabx

#340
1aaaaa

#345
0aaaaa
b11 aaabh
b100 aaabj
b101 aaabl
b100 aaabn
b101 aaabp
b110 aaabr
b101 aaabt
b110 aaabv
b111 aaabx

#350
1aaaaa

#355
0aaaaa
b1 aaabh
b10 aaabj
b11 aaabl
b10 aaabn
b11 aaabp
b100 aaabr
b11 aaabt
b100 aaabv
b101 aaabx

#360
1aaaaa

#365
0aaaaa
b10 aaabh
b11 aaabj
b100 aaabl
b11 aaabn
b100 aaabp
b101 aaabr
b100 aaabt
b101 aaabv
b110 aaabx

#370
1aaaaa

#375
0aaaaa
b11 aaabh
b100 aaabj
b101 aaabl
b100 aaabn
b101 aaabp
b110 aaabr
b101 aaabt
b110 aaabv
b111 aaabx

#380
1aaaaa

#385
0aaaaa
b1 aaabh
b10 aaabj
b11 aaabl
b10 aaabn
b11 aaabp
b100 aaabr
b11 aaabt
b100 aaabv
b101 aaabx

#390
1aaaaa

#395
0aaaaa
b10 aaabh
b11 aaabj
b100 aaabl
b11 aaabn
b100 aaabp
b101 aaabr
b100 aaabt
b101 aaabv
b110 aaabx

#400
1aaaaa

#405
0aaaaa
b11 aaabh
b100 aaabj
b101 aaabl
b100 aaabn
b101 aaabp
b110 aaabr
b101 aaabt
b110 aaabv
b111 aaabx

#410
1aaaaa

#415
0aaaaa
b1 aaabh
b10 aaabj
b11 aaabl
b10 aaabn
b11 aaabp
b100 aaabr
b11 aaabt
b100 aaabv
b101 aaabx

#420
1aaaaa

#425
0aaaaa
b10 aaabh
b11 aaabj
b100 aaabl
b11 aaabn
b100 aaabp
b101 aaabr
b100 aaabt
b101 aaabv
b110 aaabx

#430
1aaaaa

#435
0aaaaa
b11 aaabh
b100 aaabj
b101 aaabl
b100 aaabn
b101 aaabp
b110 aaabr
b101 aaabt
b110 aaabv
b111 aaabx

#440
1aaaaa

#445
0aaaaa
b1 aaabh
b10 aaabj
b11 aaabl
b10 aaabn
b11 aaabp
b100 aaabr
b11 aaabt
b100 aaabv
b101 aaabx

#450
1aaaaa

#455
0aaaaa
b10 aaabh
b11 aaabj
b100 aaabl
b11 aaabn
b100 aaabp
b101 aaabr
b100 aaabt
b101 aaabv
b110 aaabx

#460
1aaaaa

#465
0aaaaa
b11 aaabh
b100 aaabj
b101 aaabl
b100 aaabn
b101 aaabp
b110 aaabr
b101 aaabt
b110 aaabv
b111 aaabx

#470
1aaaaa

#475
0aaaaa
b1 aaabh
b10 aaabj
b11 aaabl
b10 aaabn
b11 aaabp
b100 aaabr
b11 aaabt
b100 aaabv
b101 aaabx

#480
1aaaaa

#485
0aaaaa
b10 aaabh
b11 aaabj
b100 aaabl
b11 aaabn
b100 aaabp
b101 aaabr
b100 aaabt
b101 aaabv
b110 aaabx

#490
1aaaaa

#495
0aaaaa
b11 aaabh
b100 aaabj
b101 aaabl
b100 aaabn
b101 aaabp
b110 aaabr
b101 aaabt
b110 aaabv
b111 aaabx

#500
1aaaaa

#505
0aaaaa
b1 aaabh
b10 aaabj
b11 aaabl
b10 aaabn
b11 aaabp
b100 aaabr
b11 aaabt
b100 aaabv
b101 aaabx

#510
1aaaaa

#515
0aaaaa
b10 aaabh
b11 aaabj
b100 aaabl
b11 aaabn
b100 aaabp
b101 aaabr
b100 aaabt
b101 aaabv
b110 aaabx

#520
1aaaaa

#525
0aaaaa
b11 aaabh
b100 aaabj
b101 aaabl
b100 aaabn
b101 aaabp
b110 aaabr
b101 aaabt
b110 aaabv
b111 aaabx

#530
1aaaaa

#535
0aaaaa
b1 aaabh
b10 aaabj
b11 aaabl
b10 aaabn
b11 aaabp
b100 aaabr
b11 aaabt
b100 aaabv
b101 aaabx

#540
1aaaaa

#545
0aaaaa
b10 aaabh
b11 aaabj
b100 aaabl
b11 aaabn
b100 aaabp
b101 aaabr
b100 aaabt
b101 aaabv
b110 aaabx

#550
1aaaaa

#555
0aaaaa
b11 aaabh
b100 aaabj
b101 aaabl
b100 aaabn
b101 aaabp
b110 aaabr
b101 aaabt
b110 aaabv
b111 aaabx

#560
1aaaaa

#565
0aaaaa
b1 aaabh
b10 aaabj
b11 aaabl
b10 aaabn
b11 aaabp
b100 aaabr
b11 aaabt
b100 aaabv
b101 aaabx

#570
1aaaaa

#575
0aaaaa
b10 aaabh
b11 aaabj
b100 aaabl
b11 aaabn
b100 aaabp
b101 aaabr
b100 aaabt
b101 aaabv
b110 aaabx

#580
1aaaaa

#585
0aaaaa
b11 aaabh
b100 aaabj
b101 aaabl
b100 aaabn
b101 aaabp
b110 aaabr
b101 aaabt
b110 aaabv
b111 aaabx

#590
1aaaaa

#595
0aaaaa
b1 aaabh
b10 aaabj
b11 aaabl
b10 aaabn
b11 aaabp
b100 aaabr
b11 aaabt
b100 aaabv
b101 aaabx

#600
1aaaaa

#605
0aaaaa
b10 aaabh
b11 aaabj
b100 aaabl
b11 aaabn
b100 aaabp
b101 aaabr
b100 aaabt
b101 aaabv
b110 aaabx

#610
1aaaaa

#615
0aaaaa
b11 aaabh
b100 aaabj
b101 aaabl
b100 aaabn
b101 aaabp
b110 aaabr
b101 aaabt
b110 aaabv
b111 aaabx

#620
1aaaaa

#625
0aaaaa
b1 aaabh
b10 aaabj
b11 aaabl
b10 aaabn
b11 aaabp
b100 aaabr
b11 aaabt
b100 aaabv
b101 aaabx

#630
1aaaaa

#635
0aaaaa
b10 aaabh
b11 aaabj
b100 aaabl
b11 aaabn
b100 aaabp
b101 aaabr
b100 aaabt
b101 aaabv
b110 aaabx

#640
1aaaaa

#645
0aaaaa
b11 aaabh
b100 aaabj
b101 aaabl
b100 aaabn
b101 aaabp
b110 aaabr
b101 aaabt
b110 aaabv
b111 aaabx

#650
1aaaaa

#655
0aaaaa
b1 aaabh
b10 aaabj
b11 aaabl
b10 aaabn
b11 aaabp
b100 aaabr
b11 aaabt
b100 aaabv
b101 aaabx

#660
1aaaaa
1aaaba
1aaabd
1aaabg
b1 aaabi
b10 aaabk
b11 aaabm
b10 aaabo
b11 aaabq
b100 aaabs
b11 aaabu
b100 aaabw
b101 aaaby

#665
0aaaaa
0aaaay
0aaabb
0aaabe

#670
1aaaaa

#675
0aaaaa
1aaaaz
1aaabc
1aaabf

#680
1aaaaa
b10 aaabi
b11 aaabk
b100 aaabm
b11 aaabo
b100 aaabq
b101 aaabs
b100 aaabu
b101 aaabw
b110 aaaby

#685
0aaaaa
1aaaac
0aaaaz
0aaabc
0aaabf

#690
1aaaaa

#695
0aaaaa
0aaaac
1aaaad

#700
1aaaaa

#705
0aaaaa
0aaaad
1aaaag
b1 aaaaj
b10 aaaal
b11 aaaan

#710
1aaaaa

#715
0aaaaa
b10 aaaaj
b11 aaaal
b100 aaaan

#720
1aaaaa

#725
0aaaaa
b11 aaaaj
b100 aaaal
b101 aaaan

#730
1aaaaa

#735
0aaaaa
b1 aaaaj
b10 aaaal
b11 aaaan

#740
1aaaaa

#745
0aaaaa
b10 aaaaj
b11 aaaal
b100 aaaan

#750
1aaaaa

#755
0aaaaa
b11 aaaaj
b100 aaaal
b101 aaaan

#760
1aaaaa

#765
0aaaaa
b1 aaaaj
b10 aaaal
b11 aaaan

#770
1aaaaa

#775
0aaaaa
b10 aaaaj
b11 aaaal
b100 aaaan

#780
1aaaaa

#785
0aaaaa
b11 aaaaj
b100 aaaal
b101 aaaan

#790
1aaaaa

#795
0aaaaa
b1 aaaaj
b10 aaaal
b11 aaaan

#800
1aaaaa

#805
0aaaaa
b10 aaaaj
b11 aaaal
b100 aaaan

#810
1aaaaa

#815
0aaaaa
b11 aaaaj
b100 aaaal
b101 aaaan

#820
1aaaaa

#825
0aaaaa
b1 aaaaj
b10 aaaal
b11 aaaan

#830
1aaaaa

#835
0aaaaa
b10 aaaaj
b11 aaaal
b100 aaaan

#840
1aaaaa

#845
0aaaaa
b11 aaaaj
b100 aaaal
b101 aaaan

#850
1aaaaa

#855
0aaaaa
b1 aaaaj
b10 aaaal
b11 aaaan

#860
1aaaaa

#865
0aaaaa
b10 aaaaj
b11 aaaal
b100 aaaan

#870
1aaaaa

#875
0aaaaa
b11 aaaaj
b100 aaaal
b101 aaaan

#880
1aaaaa

#885
0aaaaa
b1 aaaaj
b10 aaaal
b11 aaaan

#890
1aaaaa

#895
0aaaaa
b10 aaaaj
b11 aaaal
b100 aaaan

#900
1aaaaa

#905
0aaaaa
b11 aaaaj
b100 aaaal
b101 aaaan

#910
1aaaaa

#915
0aaaaa
b1 aaaaj
b10 aaaal
b11 aaaan

#920
1aaaaa

#925
0aaaaa
b10 aaaaj
b11 aaaal
b100 aaaan

#930
1aaaaa

#935
0aaaaa
b11 aaaaj
b100 aaaal
b101 aaaan

#940
1aaaaa

#945
0aaaaa
b1 aaaaj
b10 aaaal
b11 aaaan

#950
1aaaaa

#955
0aaaaa
b10 aaaaj
b11 aaaal
b100 aaaan

#960
1aaaaa

#965
0aaaaa
b11 aaaaj
b100 aaaal
b101 aaaan

#970
1aaaaa

#975
0aaaaa
b1 aaaaj
b10 aaaal
b11 aaaan

#980
1aaaaa

#985
0aaaaa
b10 aaaaj
b11 aaaal
b100 aaaan

#990
1aaaaa

#995
0aaaaa
b11 aaaaj
b100 aaaal
b101 aaaan

#1000
1aaaaa

#1005
0aaaaa
b1 aaaaj
b10 aaaal
b11 aaaan

#1010
1aaaaa

#1015
0aaaaa
b10 aaaaj
b11 aaaal
b100 aaaan

#1020
1aaaaa

#1025
0aaaaa
b11 aaaaj
b100 aaaal
b101 aaaan

#1030
1aaaaa

#1035
0aaaaa
b1 aaaaj
b10 aaaal
b11 aaaan

#1040
1aaaaa

#1045
0aaaaa
b10 aaaaj
b11 aaaal
b100 aaaan

#1050
1aaaaa

#1055
0aaaaa
b11 aaaaj
b100 aaaal
b101 aaaan

#1060
1aaaaa

#1065
0aaaaa
b1 aaaaj
b10 aaaal
b11 aaaan

#1070
1aaaaa

#1075
0aaaaa
b10 aaaaj
b11 aaaal
b100 aaaan

#1080
1aaaaa

#1085
0aaaaa
b11 aaaaj
b100 aaaal
b101 aaaan

#1090
1aaaaa

#1095
0aaaaa
b1 aaaaj
b10 aaaal
b11 aaaan

#1100
1aaaaa

#1105
0aaaaa
b10 aaaaj
b11 aaaal
b100 aaaan

#1110
1aaaaa

#1115
0aaaaa
b11 aaaaj
b100 aaaal
b101 aaaan

#1120
1aaaaa

#1125
0aaaaa
b1 aaaaj
b10 aaaal
b11 aaaan

#1130
1aaaaa

#1135
0aaaaa
b10 aaaaj
b11 aaaal
b100 aaaan

#1140
1aaaaa

#1145
0aaaaa
b11 aaaaj
b100 aaaal
b101 aaaan

#1150
1aaaaa

#1155
0aaaaa
b1 aaaaj
b10 aaaal
b11 aaaan

#1160
1aaaaa

#1165
0aaaaa
b10 aaaaj
b11 aaaal
b100 aaaan

#1170
1aaaaa

#1175
0aaaaa
b11 aaaaj
b100 aaaal
b101 aaaan

#1180
1aaaaa

#1185
0aaaaa
b1 aaaaj
b10 aaaal
b11 aaaan

#1190
1aaaaa

#1195
0aaaaa
b10 aaaaj
b11 aaaal
b100 aaaan

#1200
1aaaaa

#1205
0aaaaa
b11 aaaaj
b100 aaaal
b101 aaaan

#1210
1aaaaa

#1215
0aaaaa
b1 aaaaj
b10 aaaal
b11 aaaan

#1220
1aaaaa

#1225
0aaaaa
b10 aaaaj
b11 aaaal
b100 aaaan

#1230
1aaaaa

#1235
0aaaaa
b11 aaaaj
b100 aaaal
b101 aaaan

#1240
1aaaaa

#1245
0aaaaa
b1 aaaaj
b10 aaaal
b11 aaaan

#1250
1aaaaa

#1255
0aaaaa
b10 aaaaj
b11 aaaal
b100 aaaan

#1260
1aaaaa

#1265
0aaaaa
b11 aaaaj
b100 aaaal
b101 aaaan

#1270
1aaaaa

#1275
0aaaaa
b1 aaaaj
b10 aaaal
b11 aaaan

#1280
1aaaaa

#1285
0aaaaa
b10 aaaaj
b11 aaaal
b100 aaaan

#1290
1aaaaa

#1295
0aaaaa
b11 aaaaj
b100 aaaal
b101 aaaan

#1300
1aaaaa

#1305
0aaaaa
b1 aaaaj
b10 aaaal
b11 aaaan

#1310
1aaaaa

#1315
0aaaaa
b10 aaaaj
b11 aaaal
b100 aaaan

#1320
1aaaaa

#1325
0aaaaa
b11 aaaaj
b100 aaaal
b101 aaaan

#1330
1aaaaa

#1335
0aaaaa
b1 aaaaj
b10 aaaal
b11 aaaan

#1340
1aaaaa
1aaaae
b1 aaaak
b10 aaaam
b11 aaaao

#1345
0aaaaa
1aaaai
b10 aaaaj
b11 aaaal
b100 aaaan

#1350
1aaaaa
b10 aaaak
b11 aaaam
b100 aaaao

#1355
0aaaaa
b11 aaaaj
b100 aaaal
b101 aaaan

#1360
1aaaaa
b11 aaaak
b100 aaaam
b101 aaaao

#1365
0aaaaa
b1 aaaaj
b10 aaaal
b11 aaaan

#1370
1aaaaa
b1 aaaak
b10 aaaam
b11 aaaao

#1375
0aaaaa
b10 aaaaj
b11 aaaal
b100 aaaan
1aaaap

#1380
1aaaaa
b10 aaaak
b11 aaaam
b100 aaaao

#1385
0aaaaa
b11 aaaaj
b100 aaaal
b101 aaaan

#1390
1aaaaa
b11 aaaak
b100 aaaam
b101 aaaao

#1395
0aaaaa
b1 aaaaj
b10 aaaal
b11 aaaan

#1400
1aaaaa
b1 aaaak
b10 aaaam
b11 aaaao
b10100 aaaas
b11010 aaaau
b100000 aaaaw

#1405
0aaaaa
b10 aaaaj
b11 aaaal
b100 aaaan

#1410
1aaaaa
b10 aaaak
b11 aaaam
b100 aaaao
b11101 aaaas
b100110 aaaau
b101111 aaaaw

#1415
0aaaaa
b11 aaaaj
b100 aaaal
b101 aaaan

#1420
1aaaaa
b11 aaaak
b100 aaaam
b101 aaaao
b100110 aaaas
b110010 aaaau
b111110 aaaaw

#1425
0aaaaa
b1 aaaaj
b10 aaaal
b11 aaaan

#1430
1aaaaa
b1 aaaak
b10 aaaam
b11 aaaao
b10100 aaaas
b11010 aaaau
b100000 aaaaw

#1435
0aaaaa
b10 aaaaj
b11 aaaal
b100 aaaan

#1440
1aaaaa
b10 aaaak
b11 aaaam
b100 aaaao
b11101 aaaas
b100110 aaaau
b101111 aaaaw

#1445
0aaaaa
b11 aaaaj
b100 aaaal
b101 aaaan

#1450
1aaaaa
b11 aaaak
b100 aaaam
b101 aaaao
b100110 aaaas
b110010 aaaau
b111110 aaaaw

#1455
0aaaaa
b1 aaaaj
b10 aaaal
b11 aaaan

#1460
1aaaaa
b1 aaaak
b10 aaaam
b11 aaaao
b10100 aaaas
b11010 aaaau
b100000 aaaaw

#1465
0aaaaa
b10 aaaaj
b11 aaaal
b100 aaaan

#1470
1aaaaa
b10 aaaak
b11 aaaam
b100 aaaao
b11101 aaaas
b100110 aaaau
b101111 aaaaw

#1475
0aaaaa
b11 aaaaj
b100 aaaal
b101 aaaan

#1480
1aaaaa
b11 aaaak
b100 aaaam
b101 aaaao
b100110 aaaas
b110010 aaaau
b111110 aaaaw

#1485
0aaaaa
b1 aaaaj
b10 aaaal
b11 aaaan

#1490
1aaaaa
b1 aaaak
b10 aaaam
b11 aaaao
b10100 aaaas
b11010 aaaau
b100000 aaaaw

#1495
0aaaaa
b10 aaaaj
b11 aaaal
b100 aaaan

#1500
1aaaaa
b10 aaaak
b11 aaaam
b100 aaaao
b11101 aaaas
b100110 aaaau
b101111 aaaaw

#1505
0aaaaa
b11 aaaaj
b100 aaaal
b101 aaaan

#1510
1aaaaa
b11 aaaak
b100 aaaam
b101 aaaao
b100110 aaaas
b110010 aaaau
b111110 aaaaw

#1515
0aaaaa
b1 aaaaj
b10 aaaal
b11 aaaan

#1520
1aaaaa
b1 aaaak
b10 aaaam
b11 aaaao
b10100 aaaas
b11010 aaaau
b100000 aaaaw

#1525
0aaaaa
b10 aaaaj
b11 aaaal
b100 aaaan

#1530
1aaaaa
b10 aaaak
b11 aaaam
b100 aaaao
b11101 aaaas
b100110 aaaau
b101111 aaaaw

#1535
0aaaaa
b11 aaaaj
b100 aaaal
b101 aaaan

#1540
1aaaaa
b11 aaaak
b100 aaaam
b101 aaaao
b100110 aaaas
b110010 aaaau
b111110 aaaaw

#1545
0aaaaa
b1 aaaaj
b10 aaaal
b11 aaaan

#1550
1aaaaa
b1 aaaak
b10 aaaam
b11 aaaao
b10100 aaaas
b11010 aaaau
b100000 aaaaw

#1555
0aaaaa
b10 aaaaj
b11 aaaal
b100 aaaan

#1560
1aaaaa
b10 aaaak
b11 aaaam
b100 aaaao
b11101 aaaas
b100110 aaaau
b101111 aaaaw

#1565
0aaaaa
b11 aaaaj
b100 aaaal
b101 aaaan

#1570
1aaaaa
b11 aaaak
b100 aaaam
b101 aaaao
b100110 aaaas
b110010 aaaau
b111110 aaaaw

#1575
0aaaaa
b1 aaaaj
b10 aaaal
b11 aaaan

#1580
1aaaaa
b1 aaaak
b10 aaaam
b11 aaaao
b10100 aaaas
b11010 aaaau
b100000 aaaaw

#1585
0aaaaa
b10 aaaaj
b11 aaaal
b100 aaaan

#1590
1aaaaa
b10 aaaak
b11 aaaam
b100 aaaao
b11101 aaaas
b100110 aaaau
b101111 aaaaw

#1595
0aaaaa
b11 aaaaj
b100 aaaal
b101 aaaan

#1600
1aaaaa
b11 aaaak
b100 aaaam
b101 aaaao
b100110 aaaas
b110010 aaaau
b111110 aaaaw

#1605
0aaaaa
b1 aaaaj
b10 aaaal
b11 aaaan

#1610
1aaaaa
b1 aaaak
b10 aaaam
b11 aaaao
b10100 aaaas
b11010 aaaau
b100000 aaaaw

#1615
0aaaaa
b10 aaaaj
b11 aaaal
b100 aaaan

#1620
1aaaaa
b10 aaaak
b11 aaaam
b100 aaaao
b11101 aaaas
b100110 aaaau
b101111 aaaaw

#1625
0aaaaa
b11 aaaaj
b100 aaaal
b101 aaaan

#1630
1aaaaa
b11 aaaak
b100 aaaam
b101 aaaao
b100110 aaaas
b110010 aaaau
b111110 aaaaw

#1635
0aaaaa
b1 aaaaj
b10 aaaal
b11 aaaan

#1640
1aaaaa
b1 aaaak
b10 aaaam
b11 aaaao
b10100 aaaas
b11010 aaaau
b100000 aaaaw

#1645
0aaaaa
b10 aaaaj
b11 aaaal
b100 aaaan

#1650
1aaaaa
b10 aaaak
b11 aaaam
b100 aaaao
b11101 aaaas
b100110 aaaau
b101111 aaaaw

#1655
0aaaaa
b11 aaaaj
b100 aaaal
b101 aaaan

#1660
1aaaaa
b11 aaaak
b100 aaaam
b101 aaaao
b100110 aaaas
b110010 aaaau
b111110 aaaaw

#1665
0aaaaa
b1 aaaaj
b10 aaaal
b11 aaaan

#1670
1aaaaa
b1 aaaak
b10 aaaam
b11 aaaao
b10100 aaaas
b11010 aaaau
b100000 aaaaw

#1675
0aaaaa
b10 aaaaj
b11 aaaal
b100 aaaan

#1680
1aaaaa
b10 aaaak
b11 aaaam
b100 aaaao
b11101 aaaas
b100110 aaaau
b101111 aaaaw

#1685
0aaaaa
b11 aaaaj
b100 aaaal
b101 aaaan

#1690
1aaaaa
b11 aaaak
b100 aaaam
b101 aaaao
b100110 aaaas
b110010 aaaau
b111110 aaaaw

#1695
0aaaaa
b1 aaaaj
b10 aaaal
b11 aaaan

#1700
1aaaaa
b1 aaaak
b10 aaaam
b11 aaaao
b10100 aaaas
b11010 aaaau
b100000 aaaaw

#1705
0aaaaa
b10 aaaaj
b11 aaaal
b100 aaaan

#1710
1aaaaa
b10 aaaak
b11 aaaam
b100 aaaao
b11101 aaaas
b100110 aaaau
b101111 aaaaw

#1715
0aaaaa
b11 aaaaj
b100 aaaal
b101 aaaan

#1720
1aaaaa
b11 aaaak
b100 aaaam
b101 aaaao
b100110 aaaas
b110010 aaaau
b111110 aaaaw

